Parsing text: Example with WHO data
…
grep("2022", filenames_vector)

## [1] 1 2

Then, you can extract the file names that contain “2022”.

filenames_vector[grep("2022", filenames_vector)]

## [1] "data_20220927.csv" "data_20221121.csv"

2. Example using WHO tuberculosis data (UNDER CONSTRUCTION)

who

## # A tibble: 7,240 × 60
##    country     iso2  iso3   year new_s…¹ new_s…² new_s…³ new_s…⁴ new_s…⁵ new_s…⁶
##    <chr>       <chr> <chr> <int>   <int>   <int>   <int>   <int>   <int>   <int>
##  1 Afghanistan AF    AFG    1980      NA      NA      NA      NA      NA      NA
##  2 Afghanistan AF    AFG    1981      NA      NA      NA      NA      NA      NA
##  3 Afghanistan AF    AFG    1982      NA      NA      NA      NA      NA      NA
##  4 Afghanistan AF    AFG    1983      NA      NA      NA      NA      NA      NA
##  5 Afghanistan AF    AFG    1984      NA      NA      NA      NA      NA      NA
##  6 Afghanistan AF    AFG    1985      NA      NA      NA      NA      NA      NA
##  7 Afghanistan AF    AFG    1986      NA      NA      NA      NA      NA      NA
##  8 Afghanistan AF    AFG    1987      NA      NA      NA      NA      NA      NA
##  9 Afghanistan AF    AFG    1988      NA      NA      NA      NA      NA      NA
## 10 Afghanistan AF    AFG    1989      NA      NA      NA      NA      NA      NA
## # … with 7,230 more rows, 50 more variables: new_sp_m65 <int>,
## #   new_sp_f014 <int>, new_sp_f1524 <int>, new_sp_f2534 <int>,
## #   new_sp_f3544 <int>, new_sp_f4554 <int>, new_sp_f5564 <int>,
## #   new_sp_f65 <int>, new_sn_m014 <int>, new_sn_m1524 <int>,
## #   new_sn_m2534 <int>, new_sn_m3544 <int>, new_sn_m4554 <int>,
## #   new_sn_m5564 <int>, new_sn_m65 <int>, new_sn_f014 <int>,
## #   new_sn_f1524 <int>, new_sn_f2534 <int>, new_sn_f3544 <int>, …

who %>% pivot_longer(c(-country, -iso2, -iso3, -year))

## # A tibble: 405,440 × 6
##    country     iso2  iso3   year name         value
##    <chr>       <chr> <chr> <int> <chr>        <int>
##  1 Afghanistan AF    AFG    1980 new_sp_m014     NA
##  2 Afghanistan AF    AFG    1980 new_sp_m1524    NA
##  3 Afghanistan AF    AFG    1980 new_sp_m2534    NA
##  4 Afghanistan AF    AFG    1980 new_sp_m3544    NA
##  5 Afghanistan AF    AFG    1980 new_sp_m4554    NA
##  6 Afghanistan AF    AFG    1980 new_sp_m5564    NA
##  7 Afghanistan AF    AFG    1980 new_sp_m65      NA
##  8 Afghanistan AF    AFG    1980 new_sp_f014     NA
##  9 Afghanistan AF    AFG    1980 new_sp_f1524    NA
## 10 Afghanistan AF    AFG    1980 new_sp_f2534    NA
## # … with 405,430 more rows
…
next part is “_m” for male and “_f” for female. These are all 2
characters long

final part has different number of characters: 014 = 0-14 yrs of
age, 1524 = 15-24 years of age, 2534 = 25 to 34 years of age, 3544 = 35
to 44 years of age, 4554 = 45 to 54 years of age, 5564 = 55 to 64 years
of age, 65 = 65 years of age or older

Get the diagnosis method

who %>% 
  pivot_longer(c(-country, -iso2, -iso3, -year)) %>%
  mutate(method=str_sub(name, 4, 6)) 

## # A tibble: 405,440 × 7
##    country     iso2  iso3   year name         value method
##    <chr>       <chr> <chr> <int> <chr>        <int> <chr> 
##  1 Afghanistan AF    AFG    1980 new_sp_m014     NA _sp   
##  2 Afghanistan AF    AFG    1980 new_sp_m1524    NA _sp   
##  3 Afghanistan AF    AFG    1980 new_sp_m2534    NA _sp   
##  4 Afghanistan AF    AFG    1980 new_sp_m3544    NA _sp   
##  5 Afghanistan AF    AFG    1980 new_sp_m4554    NA _sp   
##  6 Afghanistan AF    AFG    1980 new_sp_m5564    NA _sp   
##  7 Afghanistan AF    AFG    1980 new_sp_m65      NA _sp   
##  8 Afghanistan AF    AFG    1980 new_sp_f014     NA _sp   
##  9 Afghanistan AF    AFG    1980 new_sp_f1524    NA _sp   
## 10 Afghanistan AF    AFG    1980 new_sp_f2534    NA _sp   
## # … with 405,430 more rows

Remove the underscore “_” if it is exists.

who %>% 
  pivot_longer(c(-country, -iso2, -iso3, -year)) %>%
  mutate(method=str_sub(name, 4, 6)) %>%
  mutate(method=str_replace(method, "_", ""))

## # A tibble: 405,440 × 7
##    country     iso2  iso3   year name         value method
##    <chr>       <chr> <chr> <int> <chr>        <int> <chr> 
##  1 Afghanistan AF    AFG    1980 new_sp_m014     NA sp    
##  2 Afghanistan AF    AFG    1980 new_sp_m1524    NA sp    
##  3 Afghanistan AF    AFG    1980 new_sp_m2534    NA sp    
##  4 Afghanistan AF    AFG    1980 new_sp_m3544    NA sp    
##  5 Afghanistan AF    AFG    1980 new_sp_m4554    NA sp    
##  6 Afghanistan AF    AFG    1980 new_sp_m5564    NA sp    
##  7 Afghanistan AF    AFG    1980 new_sp_m65      NA sp    
##  8 Afghanistan AF    AFG    1980 new_sp_f014     NA sp    
##  9 Afghanistan AF    AFG    1980 new_sp_f1524    NA sp    
## 10 Afghanistan AF    AFG    1980 new_sp_f2534    NA sp    
## # … with 405,430 more rows
