Worked Example: Plotting the change in butterfly size with climate change
…
This should give us the same value as our manual calculation
above.

Now, we can calculate the standard error for each year, species and
sex:

wl.colias=colias %>% group_by(year, sex) %>% summarise(mean.WL=mean(WL), se.WL=se(WL)) #calculate the mean of WL by year and sex for the colias dataset.

## `summarise()` has grouped output by 'year'. You can override using the
## `.groups` argument.

wl.colias

## # A tibble: 34 × 4
## # Groups:   year [17]
##     year sex   mean.WL se.WL
##    <int> <chr>   <dbl> <dbl>
##  1  1996 f        23.5 0.188
##  2  1996 m        22.9 0.150
##  3  1997 f        23.0 0.329
##  4  1997 m        21.9 0.281
##  5  1998 f        23.1 0.794
##  6  1998 m        22.6 0.205
##  7  1999 f        23.7 0.208
##  8  1999 m        22.4 0.191
##  9  2000 f        22.9 0.258
## 10  2000 m        22.5 0.150
## # … with 24 more rows
…
Now, let’s do the same with Boloria (Figure 2b):

wl.boloria=boloria %>% group_by(year, sex) %>% summarise(mean.WL=mean(WL), se.WL=se(WL)) #calculate the mean of WL by year and sex for the colias dataset.

## `summarise()` has grouped output by 'year'. You can override using the
## `.groups` argument.

wl.boloria

## # A tibble: 34 × 4
## # Groups:   year [17]
##     year sex   mean.WL  se.WL
##    <int> <chr>   <dbl>  <dbl>
##  1  1996 f        19.2 0.0424
##  2  1996 m        18.2 0.0376
##  3  1997 f        18.6 0.0740
##  4  1997 m        17.9 0.0555
##  5  1998 f        18.8 0.147 
##  6  1998 m        18.2 0.122 
##  7  1999 f        19.1 0.151 
##  8  1999 m        18.1 0.108 
##  9  2000 f        19.0 0.0539
## 10  2000 m        18.1 0.0601
## # … with 24 more rows
…
The good news is that we have covered everything you need to
know to make these figures! Think about it for a minute and see
if you can visualize the steps you need to complete to get this data

Ok, let’s start. To begin, let’s add another column to the
“wl.colias” dataframe that is the temperature of the previosu year. To
do this, we will use a match() function that is useful as a
“lookup” function to merge two datasets together.

wl.colias %>% left_join(., year.dat)

## Joining, by = "year"

## # A tibble: 34 × 7
## # Groups:   year [17]
##     year sex   mean.WL se.WL mean.snow mean.mayjun mean.mayaug
##    <int> <chr>   <dbl> <dbl>     <dbl>       <dbl>       <dbl>
##  1  1996 f        23.5 0.188      159.       -1.76      NA    
##  2  1996 m        22.9 0.150      159.       -1.76      NA    
##  3  1997 f        23.0 0.329      159        -2.22       1.63 
##  4  1997 m        21.9 0.281      159        -2.22       1.63 
##  5  1998 f        23.1 0.794      161        -2.87       1.13 
##  6  1998 m        22.6 0.205      161        -2.87       1.13 
##  7  1999 f        23.7 0.208      167.       -1.32       0.894
##  8  1999 m        22.4 0.191      167.       -1.32       0.894
##  9  2000 f        22.9 0.258      155.       -1.82       1.64 
## 10  2000 m        22.5 0.150      155.       -1.82       1.64 
## # … with 24 more rows
…
