Data Wrangling to plots with tidyverse packages
…
3.2 Converting wide-format data to long-format data with
pivot_longer()

“Wide-format” data is one in which each row is a subject/entity that
is measured repeatedly, and each measurement appears on different
columns.

Take for example the billboard dataset, which is part of
the tidyr package. It contains data on rankings of songs on the
Billboard Top 100 in the year 2000. It is in wide-format:

billboard

## # A tibble: 317 × 79
##    artist track date.ent…¹   wk1   wk2   wk3   wk4   wk5   wk6   wk7   wk8   wk9
##    <chr>  <chr> <date>     <dbl> <dbl> <dbl> <dbl> <dbl> <dbl> <dbl> <dbl> <dbl>
##  1 2 Pac  Baby… 2000-02-26    87    82    72    77    87    94    99    NA    NA
##  2 2Ge+h… The … 2000-09-02    91    87    92    NA    NA    NA    NA    NA    NA
##  3 3 Doo… Kryp… 2000-04-08    81    70    68    67    66    57    54    53    51
##  4 3 Doo… Loser 2000-10-21    76    76    72    69    67    65    55    59    62
##  5 504 B… Wobb… 2000-04-15    57    34    25    17    17    31    36    49    53
##  6 98^0   Give… 2000-08-19    51    39    34    26    26    19     2     2     3
##  7 A*Tee… Danc… 2000-07-08    97    97    96    95   100    NA    NA    NA    NA
##  8 Aaliy… I Do… 2000-01-29    84    62    51    41    38    35    35    38    38
##  9 Aaliy… Try … 2000-03-18    59    53    38    28    21    18    16    14    12
## 10 Adams… Open… 2000-08-26    76    76    74    69    68    67    61    58    57
## # … with 307 more rows, 67 more variables: wk10 <dbl>, wk11 <dbl>, wk12 <dbl>,
## #   wk13 <dbl>, wk14 <dbl>, wk15 <dbl>, wk16 <dbl>, wk17 <dbl>, wk18 <dbl>,
## #   wk19 <dbl>, wk20 <dbl>, wk21 <dbl>, wk22 <dbl>, wk23 <dbl>, wk24 <dbl>,
## #   wk25 <dbl>, wk26 <dbl>, wk27 <dbl>, wk28 <dbl>, wk29 <dbl>, wk30 <dbl>,
## #   wk31 <dbl>, wk32 <dbl>, wk33 <dbl>, wk34 <dbl>, wk35 <dbl>, wk36 <dbl>,
## #   wk37 <dbl>, wk38 <dbl>, wk39 <dbl>, wk40 <dbl>, wk41 <dbl>, wk42 <dbl>,
## #   wk43 <dbl>, wk44 <dbl>, wk45 <dbl>, wk46 <dbl>, wk47 <dbl>, wk48 <dbl>, …

pivot_longer(billboard, cols=starts_with("wk"), names_to="week", values_to="rank")

## # A tibble: 24,092 × 5
##    artist track                   date.entered week   rank
##    <chr>  <chr>                   <date>       <chr> <dbl>
##  1 2 Pac  Baby Don't Cry (Keep... 2000-02-26   wk1      87
##  2 2 Pac  Baby Don't Cry (Keep... 2000-02-26   wk2      82
##  3 2 Pac  Baby Don't Cry (Keep... 2000-02-26   wk3      72
##  4 2 Pac  Baby Don't Cry (Keep... 2000-02-26   wk4      77
##  5 2 Pac  Baby Don't Cry (Keep... 2000-02-26   wk5      87
##  6 2 Pac  Baby Don't Cry (Keep... 2000-02-26   wk6      94
##  7 2 Pac  Baby Don't Cry (Keep... 2000-02-26   wk7      99
##  8 2 Pac  Baby Don't Cry (Keep... 2000-02-26   wk8      NA
##  9 2 Pac  Baby Don't Cry (Keep... 2000-02-26   wk9      NA
## 10 2 Pac  Baby Don't Cry (Keep... 2000-02-26   wk10     NA
## # … with 24,082 more rows
…
1.1. world_bank_pop: Population data from World Bank
(2000-2017)

First is the world_bank_pop dataset that is included in
the tidyr package (which is part of the the tidyverse
suite). Start by pulling up the help file for the dataset

?world_bank_pop

Let’s take a peak at the data, which is in “tibble” format:

world_bank_pop

## # A tibble: 1,056 × 20
##    country indic…¹ `2000` `2001` `2002` `2003`  `2004`  `2005`   `2006`   `2007`
##    <chr>   <chr>    <dbl>  <dbl>  <dbl>  <dbl>   <dbl>   <dbl>    <dbl>    <dbl>
##  1 ABW     SP.URB… 4.24e4 4.30e4 4.37e4 4.42e4 4.47e+4 4.49e+4  4.49e+4  4.47e+4
##  2 ABW     SP.URB… 1.18e0 1.41e0 1.43e0 1.31e0 9.51e-1 4.91e-1 -1.78e-2 -4.35e-1
##  3 ABW     SP.POP… 9.09e4 9.29e4 9.50e4 9.70e4 9.87e+4 1.00e+5  1.01e+5  1.01e+5
##  4 ABW     SP.POP… 2.06e0 2.23e0 2.23e0 2.11e0 1.76e+0 1.30e+0  7.98e-1  3.84e-1
##  5 AFG     SP.URB… 4.44e6 4.65e6 4.89e6 5.16e6 5.43e+6 5.69e+6  5.93e+6  6.15e+6
##  6 AFG     SP.URB… 3.91e0 4.66e0 5.13e0 5.23e0 5.12e+0 4.77e+0  4.12e+0  3.65e+0
##  7 AFG     SP.POP… 2.01e7 2.10e7 2.20e7 2.31e7 2.41e+7 2.51e+7  2.59e+7  2.66e+7
##  8 AFG     SP.POP… 3.49e0 4.25e0 4.72e0 4.82e0 4.47e+0 3.87e+0  3.23e+0  2.76e+0
##  9 AGO     SP.URB… 8.23e6 8.71e6 9.22e6 9.77e6 1.03e+7 1.09e+7  1.15e+7  1.21e+7
## 10 AGO     SP.URB… 5.44e0 5.59e0 5.70e0 5.76e0 5.75e+0 5.69e+0  4.92e+0  4.89e+0
## # … with 1,046 more rows, 10 more variables: `2008` <dbl>, `2009` <dbl>,
## #   `2010` <dbl>, `2011` <dbl>, `2012` <dbl>, `2013` <dbl>, `2014` <dbl>,
## #   `2015` <dbl>, `2016` <dbl>, `2017` <dbl>, and abbreviated variable name
## #   ¹​indicator
…
…but this will work

world_bank_pop$`2001`

2. Problem 1: “Countries” that are not countries: Merging datasets
with join functions

We are going to start by diving into the world_bank_pop
dataset.

Let’s take a peek at the dataset again and see what we have…

world_bank_pop

## # A tibble: 1,056 × 20
##    country indic…¹ `2000` `2001` `2002` `2003`  `2004`  `2005`   `2006`   `2007`
##    <chr>   <chr>    <dbl>  <dbl>  <dbl>  <dbl>   <dbl>   <dbl>    <dbl>    <dbl>
##  1 ABW     SP.URB… 4.24e4 4.30e4 4.37e4 4.42e4 4.47e+4 4.49e+4  4.49e+4  4.47e+4
##  2 ABW     SP.URB… 1.18e0 1.41e0 1.43e0 1.31e0 9.51e-1 4.91e-1 -1.78e-2 -4.35e-1
##  3 ABW     SP.POP… 9.09e4 9.29e4 9.50e4 9.70e4 9.87e+4 1.00e+5  1.01e+5  1.01e+5
##  4 ABW     SP.POP… 2.06e0 2.23e0 2.23e0 2.11e0 1.76e+0 1.30e+0  7.98e-1  3.84e-1
##  5 AFG     SP.URB… 4.44e6 4.65e6 4.89e6 5.16e6 5.43e+6 5.69e+6  5.93e+6  6.15e+6
##  6 AFG     SP.URB… 3.91e0 4.66e0 5.13e0 5.23e0 5.12e+0 4.77e+0  4.12e+0  3.65e+0
##  7 AFG     SP.POP… 2.01e7 2.10e7 2.20e7 2.31e7 2.41e+7 2.51e+7  2.59e+7  2.66e+7
##  8 AFG     SP.POP… 3.49e0 4.25e0 4.72e0 4.82e0 4.47e+0 3.87e+0  3.23e+0  2.76e+0
##  9 AGO     SP.URB… 8.23e6 8.71e6 9.22e6 9.77e6 1.03e+7 1.09e+7  1.15e+7  1.21e+7
## 10 AGO     SP.URB… 5.44e0 5.59e0 5.70e0 5.76e0 5.75e+0 5.69e+0  4.92e+0  4.89e+0
## # … with 1,046 more rows, 10 more variables: `2008` <dbl>, `2009` <dbl>,
## #   `2010` <dbl>, `2011` <dbl>, `2012` <dbl>, `2013` <dbl>, `2014` <dbl>,
## #   `2015` <dbl>, `2016` <dbl>, `2017` <dbl>, and abbreviated variable name
## #   ¹​indicator
…
Unfortunately, the world_bank_pop dataset does not
include any variables that allow us to differentiate the countries from
the aggregates! However, we can solve this problem by pulling the
metadata for countries from the World Bank. We can do this by using the
wb_countries() function from the wbstats
package.

Let’s pull the country metadata and save it as an object called
“metadata”:

metadata=wb_countries()

metadata

## # A tibble: 299 × 18
##    iso3c iso2c country    capit…¹ longi…² latit…³ regio…⁴ regio…⁵ region admin…⁶
##    <chr> <chr> <chr>      <chr>     <dbl>   <dbl> <chr>   <chr>   <chr>  <chr>  
##  1 ABW   AW    Aruba      Oranje…  -70.0    12.5  LCN     ZJ      Latin… <NA>   
##  2 AFE   ZH    Africa Ea… <NA>      NA      NA    <NA>    <NA>    Aggre… <NA>   
##  3 AFG   AF    Afghanist… Kabul     69.2    34.5  SAS     8S      South… SAS    
##  4 AFR   A9    Africa     <NA>      NA      NA    <NA>    <NA>    Aggre… <NA>   
##  5 AFW   ZI    Africa We… <NA>      NA      NA    <NA>    <NA>    Aggre… <NA>   
##  6 AGO   AO    Angola     Luanda    13.2    -8.81 SSF     ZG      Sub-S… SSA    
##  7 ALB   AL    Albania    Tirane    19.8    41.3  ECS     Z7      Europ… ECA    
##  8 AND   AD    Andorra    Andorr…    1.52   42.5  ECS     Z7      Europ… <NA>   
##  9 ARB   1A    Arab World <NA>      NA      NA    <NA>    <NA>    Aggre… <NA>   
## 10 ARE   AE    United Ar… Abu Dh…   54.4    24.5  MEA     ZQ      Middl… <NA>   
## # … with 289 more rows, 8 more variables: admin_region_iso2c <chr>,
## #   admin_region <chr>, income_level_iso3c <chr>, income_level_iso2c <chr>,
## #   income_level <chr>, lending_type_iso3c <chr>, lending_type_iso2c <chr>,
## #   lending_type <chr>, and abbreviated variable names ¹​capital_city,
## #   ²​longitude, ³​latitude, ⁴​region_iso3c, ⁵​region_iso2c, ⁶​admin_region_iso3c

head(metadata$region)

## [1] "Latin America & Caribbean" "Aggregates"               
## [3] "South Asia"                "Aggregates"               
## [5] "Aggregates"                "Sub-Saharan Africa"

So this column shows us the “Aggregates”.

metadata %>% dplyr::filter(region != "Aggregates")

## # A tibble: 218 × 18
##    iso3c iso2c country    capit…¹ longi…² latit…³ regio…⁴ regio…⁵ region admin…⁶
##    <chr> <chr> <chr>      <chr>     <dbl>   <dbl> <chr>   <chr>   <chr>  <chr>  
##  1 ABW   AW    Aruba      Oranje…  -70.0    12.5  LCN     ZJ      Latin… <NA>   
##  2 AFG   AF    Afghanist… Kabul     69.2    34.5  SAS     8S      South… SAS    
##  3 AGO   AO    Angola     Luanda    13.2    -8.81 SSF     ZG      Sub-S… SSA    
##  4 ALB   AL    Albania    Tirane    19.8    41.3  ECS     Z7      Europ… ECA    
##  5 AND   AD    Andorra    Andorr…    1.52   42.5  ECS     Z7      Europ… <NA>   
##  6 ARE   AE    United Ar… Abu Dh…   54.4    24.5  MEA     ZQ      Middl… <NA>   
##  7 ARG   AR    Argentina  Buenos…  -58.4   -34.6  LCN     ZJ      Latin… LAC    
##  8 ARM   AM    Armenia    Yerevan   44.5    40.2  ECS     Z7      Europ… ECA    
##  9 ASM   AS    American … Pago P… -171.    -14.3  EAS     Z4      East … EAP    
## 10 ATG   AG    Antigua a… Saint …  -61.8    17.1  LCN     ZJ      Latin… <NA>   
## # … with 208 more rows, 8 more variables: admin_region_iso2c <chr>,
## #   admin_region <chr>, income_level_iso3c <chr>, income_level_iso2c <chr>,
## #   income_level <chr>, lending_type_iso3c <chr>, lending_type_iso2c <chr>,
## #   lending_type <chr>, and abbreviated variable names ¹​capital_city,
## #   ²​longitude, ³​latitude, ⁴​region_iso3c, ⁵​region_iso2c, ⁶​admin_region_iso3c

metadata %>% 
  dplyr::filter(region != "Aggregates") %>%
  select(iso3c, iso2c, country, region)

## # A tibble: 218 × 4
##    iso3c iso2c country              region                    
##    <chr> <chr> <chr>                <chr>                     
##  1 ABW   AW    Aruba                Latin America & Caribbean 
##  2 AFG   AF    Afghanistan          South Asia                
##  3 AGO   AO    Angola               Sub-Saharan Africa        
##  4 ALB   AL    Albania              Europe & Central Asia     
##  5 AND   AD    Andorra              Europe & Central Asia     
##  6 ARE   AE    United Arab Emirates Middle East & North Africa
##  7 ARG   AR    Argentina            Latin America & Caribbean 
##  8 ARM   AM    Armenia              Europe & Central Asia     
##  9 ASM   AS    American Samoa       East Asia & Pacific       
## 10 ATG   AG    Antigua and Barbuda  Latin America & Caribbean 
## # … with 208 more rows

countries=metadata %>% 
  dplyr::filter(region != "Aggregates") %>%
  select(iso3c, iso2c, country.name=country, region, income_level) %>%
  mutate(income_level=factor(income_level, levels=c("Low income", "Lower middle income", "Upper middle income", "High income")))

popdat_countries=inner_join(world_bank_pop, countries, by=c("country" = "iso3c"))
popdat_countries

## # A tibble: 868 × 24
##    country indic…¹ `2000` `2001` `2002` `2003`  `2004`  `2005`   `2006`   `2007`
##    <chr>   <chr>    <dbl>  <dbl>  <dbl>  <dbl>   <dbl>   <dbl>    <dbl>    <dbl>
##  1 ABW     SP.URB… 4.24e4 4.30e4 4.37e4 4.42e4 4.47e+4 4.49e+4  4.49e+4  4.47e+4
##  2 ABW     SP.URB… 1.18e0 1.41e0 1.43e0 1.31e0 9.51e-1 4.91e-1 -1.78e-2 -4.35e-1
##  3 ABW     SP.POP… 9.09e4 9.29e4 9.50e4 9.70e4 9.87e+4 1.00e+5  1.01e+5  1.01e+5
##  4 ABW     SP.POP… 2.06e0 2.23e0 2.23e0 2.11e0 1.76e+0 1.30e+0  7.98e-1  3.84e-1
##  5 AFG     SP.URB… 4.44e6 4.65e6 4.89e6 5.16e6 5.43e+6 5.69e+6  5.93e+6  6.15e+6
##  6 AFG     SP.URB… 3.91e0 4.66e0 5.13e0 5.23e0 5.12e+0 4.77e+0  4.12e+0  3.65e+0
##  7 AFG     SP.POP… 2.01e7 2.10e7 2.20e7 2.31e7 2.41e+7 2.51e+7  2.59e+7  2.66e+7
##  8 AFG     SP.POP… 3.49e0 4.25e0 4.72e0 4.82e0 4.47e+0 3.87e+0  3.23e+0  2.76e+0
##  9 AGO     SP.URB… 8.23e6 8.71e6 9.22e6 9.77e6 1.03e+7 1.09e+7  1.15e+7  1.21e+7
## 10 AGO     SP.URB… 5.44e0 5.59e0 5.70e0 5.76e0 5.75e+0 5.69e+0  4.92e+0  4.89e+0
## # … with 858 more rows, 14 more variables: `2008` <dbl>, `2009` <dbl>,
## #   `2010` <dbl>, `2011` <dbl>, `2012` <dbl>, `2013` <dbl>, `2014` <dbl>,
## #   `2015` <dbl>, `2016` <dbl>, `2017` <dbl>, iso2c <chr>, country.name <chr>,
## #   region <chr>, income_level <fct>, and abbreviated variable name ¹​indicator
…
As mentioned above (Section 1.1), each row is a country x indicator
combination, with 4 different indicators. The indicators are:

SP.POP.GROW = population growth

SP.POP.TOTL = total population

SP.URB.GROW = urban population growth

SP.URB.TOTL = total urban population

popdat_countries %>% 
  dplyr::filter(indicator=="SP.POP.TOTL") 

## # A tibble: 217 × 24
##    country indicator     `2000` `2001` `2002` `2003` `2004` `2005` `2006` `2007`
##    <chr>   <chr>          <dbl>  <dbl>  <dbl>  <dbl>  <dbl>  <dbl>  <dbl>  <dbl>
##  1 ABW     SP.POP.TOTL    90853 9.29e4 9.50e4 9.70e4 9.87e4 1.00e5 1.01e5 1.01e5
##  2 AFG     SP.POP.TOTL 20093756 2.10e7 2.20e7 2.31e7 2.41e7 2.51e7 2.59e7 2.66e7
##  3 AGO     SP.POP.TOTL 16440924 1.70e7 1.76e7 1.82e7 1.89e7 1.96e7 2.03e7 2.10e7
##  4 ALB     SP.POP.TOTL  3089027 3.06e6 3.05e6 3.04e6 3.03e6 3.01e6 2.99e6 2.97e6
##  5 AND     SP.POP.TOTL    65390 6.73e4 7.00e4 7.32e4 7.62e4 7.89e4 8.10e4 8.27e4
##  6 ARE     SP.POP.TOTL  3154925 3.33e6 3.51e6 3.74e6 4.09e6 4.58e6 5.24e6 6.04e6
##  7 ARG     SP.POP.TOTL 37057452 3.75e7 3.79e7 3.83e7 3.87e7 3.91e7 3.96e7 4.00e7
##  8 ARM     SP.POP.TOTL  3069588 3.05e6 3.03e6 3.02e6 3.00e6 2.98e6 2.96e6 2.93e6
##  9 ASM     SP.POP.TOTL    57521 5.82e4 5.87e4 5.91e4 5.93e4 5.91e4 5.86e4 5.79e4
## 10 ATG     SP.POP.TOTL    83584 8.51e4 8.63e4 8.73e4 8.83e4 8.93e4 9.03e4 9.14e4
## # … with 207 more rows, and 14 more variables: `2008` <dbl>, `2009` <dbl>,
## #   `2010` <dbl>, `2011` <dbl>, `2012` <dbl>, `2013` <dbl>, `2014` <dbl>,
## #   `2015` <dbl>, `2016` <dbl>, `2017` <dbl>, iso2c <chr>, country.name <chr>,
## #   region <chr>, income_level <fct>
…
upper_pop=pop_totals %>%
  pull(`2017`) %>% 
  quantile(., probs=0.90, na.rm=T)
upper_pop

##      90% 
## 63286844

large_countries=pop_totals %>% 
  dplyr::filter(`2017` > upper_pop) %>% 
  select(country)
large_countries

## # A tibble: 22 × 1
##    country
##    <chr>  
##  1 BGD    
##  2 BRA    
##  3 CHN    
##  4 COD    
##  5 DEU    
##  6 EGY    
##  7 ETH    
##  8 FRA    
##  9 GBR    
## 10 IDN    
## # … with 12 more rows

popgrowth_large=popdat_countries %>% 
  dplyr::filter(indicator=="SP.POP.GROW") %>%
  right_join(., large_countries, keep=FALSE) 

## Joining, by = "country"

popgrowth_large %>% select(-indicator, -country.name, -iso2c, -region, -income_level) %>% pivot_longer(!country, names_to="year", values_to="growth_rate")

## # A tibble: 396 × 3
##    country year  growth_rate
##    <chr>   <chr>       <dbl>
##  1 BGD     2000         1.96
##  2 BGD     2001         1.90
##  3 BGD     2002         1.84
##  4 BGD     2003         1.75
##  5 BGD     2004         1.63
##  6 BGD     2005         1.49
##  7 BGD     2006         1.34
##  8 BGD     2007         1.21
##  9 BGD     2008         1.13
## 10 BGD     2009         1.10
## # … with 386 more rows
…
