Parsing dates and text
…
## [1] "data_20220927.csv" "data_20221121.csv"

4. Example using WHO tuberculosis data (UNDER CONSTRUCTION)

Let’s do an example of how one might use text parsing in the process
of data analysis.

For this example, we will use the who dataset, included
in tidyverse, which has data from the World Health Organization Global
Tuberculosis Report.

who

## # A tibble: 7,240 × 60
##    country  iso2  iso3   year new_sp_m014 new_sp_m1524 new_sp_m2534 new_sp_m3544
##    <chr>    <chr> <chr> <dbl>       <dbl>        <dbl>        <dbl>        <dbl>
##  1 Afghani… AF    AFG    1980          NA           NA           NA           NA
##  2 Afghani… AF    AFG    1981          NA           NA           NA           NA
##  3 Afghani… AF    AFG    1982          NA           NA           NA           NA
##  4 Afghani… AF    AFG    1983          NA           NA           NA           NA
##  5 Afghani… AF    AFG    1984          NA           NA           NA           NA
##  6 Afghani… AF    AFG    1985          NA           NA           NA           NA
##  7 Afghani… AF    AFG    1986          NA           NA           NA           NA
##  8 Afghani… AF    AFG    1987          NA           NA           NA           NA
##  9 Afghani… AF    AFG    1988          NA           NA           NA           NA
## 10 Afghani… AF    AFG    1989          NA           NA           NA           NA
## # ℹ 7,230 more rows
## # ℹ 52 more variables: new_sp_m4554 <dbl>, new_sp_m5564 <dbl>,
## #   new_sp_m65 <dbl>, new_sp_f014 <dbl>, new_sp_f1524 <dbl>,
## #   new_sp_f2534 <dbl>, new_sp_f3544 <dbl>, new_sp_f4554 <dbl>,
## #   new_sp_f5564 <dbl>, new_sp_f65 <dbl>, new_sn_m014 <dbl>,
## #   new_sn_m1524 <dbl>, new_sn_m2534 <dbl>, new_sn_m3544 <dbl>,
## #   new_sn_m4554 <dbl>, new_sn_m5564 <dbl>, new_sn_m65 <dbl>, …
…
These column names are where a lot of the important information are,
and what we might want to use as variables of interest.

So, let’s refresh our memory on how we can use the
pivot_longer() function to make this data into a “long
format”.

Start by using pivot_longer(), specifying that we want
to keep the first four columns as is:

who_long=who %>% pivot_longer(c(-country, -iso2, -iso3, -year))
who_long

## # A tibble: 405,440 × 6
##    country     iso2  iso3   year name         value
##    <chr>       <chr> <chr> <dbl> <chr>        <dbl>
##  1 Afghanistan AF    AFG    1980 new_sp_m014     NA
##  2 Afghanistan AF    AFG    1980 new_sp_m1524    NA
##  3 Afghanistan AF    AFG    1980 new_sp_m2534    NA
##  4 Afghanistan AF    AFG    1980 new_sp_m3544    NA
##  5 Afghanistan AF    AFG    1980 new_sp_m4554    NA
##  6 Afghanistan AF    AFG    1980 new_sp_m5564    NA
##  7 Afghanistan AF    AFG    1980 new_sp_m65      NA
##  8 Afghanistan AF    AFG    1980 new_sp_f014     NA
##  9 Afghanistan AF    AFG    1980 new_sp_f1524    NA
## 10 Afghanistan AF    AFG    1980 new_sp_f2534    NA
## # ℹ 405,430 more rows
…
So we can use this to create a new column called “gender” in the
who_long dataset.

To do this, we will use the mutate() function, and use
the str_sub() within it. In that function, we specify that
we are taking the variable “name” and taking the 8th character.

who_long %>%
  mutate(gender=str_sub(name, start=8, end=8))

## # A tibble: 405,440 × 7
##    country     iso2  iso3   year name         value gender
##    <chr>       <chr> <chr> <dbl> <chr>        <dbl> <chr> 
##  1 Afghanistan AF    AFG    1980 new_sp_m014     NA m     
##  2 Afghanistan AF    AFG    1980 new_sp_m1524    NA m     
##  3 Afghanistan AF    AFG    1980 new_sp_m2534    NA m     
##  4 Afghanistan AF    AFG    1980 new_sp_m3544    NA m     
##  5 Afghanistan AF    AFG    1980 new_sp_m4554    NA m     
##  6 Afghanistan AF    AFG    1980 new_sp_m5564    NA m     
##  7 Afghanistan AF    AFG    1980 new_sp_m65      NA m     
##  8 Afghanistan AF    AFG    1980 new_sp_f014     NA f     
##  9 Afghanistan AF    AFG    1980 new_sp_f1524    NA f     
## 10 Afghanistan AF    AFG    1980 new_sp_f2534    NA f     
## # ℹ 405,430 more rows
…
So what we can do is to go ahead and extract the 4th to 6th character
and then remove the underscore if it exists.

Remove the underscore “_” if it is exists.

who_long %>%
  mutate(gender=str_sub(name, start=8, end=8)) %>%
  mutate(method=str_sub(name, 4, 6)) %>%
  mutate(method=str_replace(method, "_", ""))

## # A tibble: 405,440 × 8
##    country     iso2  iso3   year name         value gender method
##    <chr>       <chr> <chr> <dbl> <chr>        <dbl> <chr>  <chr> 
##  1 Afghanistan AF    AFG    1980 new_sp_m014     NA m      sp    
##  2 Afghanistan AF    AFG    1980 new_sp_m1524    NA m      sp    
##  3 Afghanistan AF    AFG    1980 new_sp_m2534    NA m      sp    
##  4 Afghanistan AF    AFG    1980 new_sp_m3544    NA m      sp    
##  5 Afghanistan AF    AFG    1980 new_sp_m4554    NA m      sp    
##  6 Afghanistan AF    AFG    1980 new_sp_m5564    NA m      sp    
##  7 Afghanistan AF    AFG    1980 new_sp_m65      NA m      sp    
##  8 Afghanistan AF    AFG    1980 new_sp_f014     NA f      sp    
##  9 Afghanistan AF    AFG    1980 new_sp_f1524    NA f      sp    
## 10 Afghanistan AF    AFG    1980 new_sp_f2534    NA f      sp    
## # ℹ 405,430 more rows
…
who_long %>%
  mutate(gender=str_sub(name, start=8, end=8)) %>%
  mutate(method=str_sub(name, 4, 6)) %>%
  mutate(method=str_replace(method, "_", "")) %>%
  mutate(age=str_sub(name, start=9) %>%
           str_replace("014", "0-14") %>%
           str_replace("1524", "15-24") %>%
           str_replace("2534", "25-34") %>%
           str_replace("3544", "35-44") %>%
           str_replace("4544", "45-54") %>%
           str_replace("5564", "55-64") %>%
           str_replace("65", "65+") %>%
           as_factor())

## # A tibble: 405,440 × 9
##    country     iso2  iso3   year name         value gender method age  
##    <chr>       <chr> <chr> <dbl> <chr>        <dbl> <chr>  <chr>  <fct>
##  1 Afghanistan AF    AFG    1980 new_sp_m014     NA m      sp     0-14 
##  2 Afghanistan AF    AFG    1980 new_sp_m1524    NA m      sp     15-24
##  3 Afghanistan AF    AFG    1980 new_sp_m2534    NA m      sp     25-34
##  4 Afghanistan AF    AFG    1980 new_sp_m3544    NA m      sp     35-44
##  5 Afghanistan AF    AFG    1980 new_sp_m4554    NA m      sp     4554 
##  6 Afghanistan AF    AFG    1980 new_sp_m5564    NA m      sp     55-64
##  7 Afghanistan AF    AFG    1980 new_sp_m65      NA m      sp     65+  
##  8 Afghanistan AF    AFG    1980 new_sp_f014     NA f      sp     0-14 
##  9 Afghanistan AF    AFG    1980 new_sp_f1524    NA f      sp     15-24
## 10 Afghanistan AF    AFG    1980 new_sp_f2534    NA f      sp     25-34
## # ℹ 405,430 more rows
…
