Data Wrangling to plots with tidyverse packages
…
First, I’m going to introduce the “pipe”–perhaps the most useful part
of the tidyverse grammar (which actually comes from another amazing
package called magrittr, if you care…).

Basically, piping is when the %>% operator is used to
forward a value, or the result of an expression, into the next function
call/expression.

Take for example the billboard dataset, which is part of
the tidyr package. It contains data on rankings of songs on the
Billboard Top 100 in the year 2000.

billboard

## # A tibble: 317 × 79
##    artist track date.ent…¹   wk1   wk2   wk3   wk4   wk5   wk6   wk7   wk8   wk9
##    <chr>  <chr> <date>     <dbl> <dbl> <dbl> <dbl> <dbl> <dbl> <dbl> <dbl> <dbl>
##  1 2 Pac  Baby… 2000-02-26    87    82    72    77    87    94    99    NA    NA
##  2 2Ge+h… The … 2000-09-02    91    87    92    NA    NA    NA    NA    NA    NA
##  3 3 Doo… Kryp… 2000-04-08    81    70    68    67    66    57    54    53    51
##  4 3 Doo… Loser 2000-10-21    76    76    72    69    67    65    55    59    62
##  5 504 B… Wobb… 2000-04-15    57    34    25    17    17    31    36    49    53
##  6 98^0   Give… 2000-08-19    51    39    34    26    26    19     2     2     3
##  7 A*Tee… Danc… 2000-07-08    97    97    96    95   100    NA    NA    NA    NA
##  8 Aaliy… I Do… 2000-01-29    84    62    51    41    38    35    35    38    38
##  9 Aaliy… Try … 2000-03-18    59    53    38    28    21    18    16    14    12
## 10 Adams… Open… 2000-08-26    76    76    74    69    68    67    61    58    57
## # … with 307 more rows, 67 more variables: wk10 <dbl>, wk11 <dbl>, wk12 <dbl>,
## #   wk13 <dbl>, wk14 <dbl>, wk15 <dbl>, wk16 <dbl>, wk17 <dbl>, wk18 <dbl>,
## #   wk19 <dbl>, wk20 <dbl>, wk21 <dbl>, wk22 <dbl>, wk23 <dbl>, wk24 <dbl>,
## #   wk25 <dbl>, wk26 <dbl>, wk27 <dbl>, wk28 <dbl>, wk29 <dbl>, wk30 <dbl>,
## #   wk31 <dbl>, wk32 <dbl>, wk33 <dbl>, wk34 <dbl>, wk35 <dbl>, wk36 <dbl>,
## #   wk37 <dbl>, wk38 <dbl>, wk39 <dbl>, wk40 <dbl>, wk41 <dbl>, wk42 <dbl>,
## #   wk43 <dbl>, wk44 <dbl>, wk45 <dbl>, wk46 <dbl>, wk47 <dbl>, wk48 <dbl>, …
…
3.3. Select columns

Sometimes, you don’t need all of the data. Let’s say we just want to
see what position each song started at–so we just want the artist,
track, date entered and the week 1 rank. You can do this with
select()

billboard %>% select(artist, track, date.entered, wk1)

## # A tibble: 317 × 4
##    artist         track                   date.entered   wk1
##    <chr>          <chr>                   <date>       <dbl>
##  1 2 Pac          Baby Don't Cry (Keep... 2000-02-26      87
##  2 2Ge+her        The Hardest Part Of ... 2000-09-02      91
##  3 3 Doors Down   Kryptonite              2000-04-08      81
##  4 3 Doors Down   Loser                   2000-10-21      76
##  5 504 Boyz       Wobble Wobble           2000-04-15      57
##  6 98^0           Give Me Just One Nig... 2000-08-19      51
##  7 A*Teens        Dancing Queen           2000-07-08      97
##  8 Aaliyah        I Don't Wanna           2000-01-29      84
##  9 Aaliyah        Try Again               2000-03-18      59
## 10 Adams, Yolanda Open My Heart           2000-08-26      76
## # … with 307 more rows

The nice thing about the select function is that you don’t need to
put the column names in quotes or anything–just type in the columns you
want.

or, type in the columns you DON’T want:

billboard %>% select(-track, -date.entered)

## # A tibble: 317 × 77
##    artist        wk1   wk2   wk3   wk4   wk5   wk6   wk7   wk8   wk9  wk10  wk11
##    <chr>       <dbl> <dbl> <dbl> <dbl> <dbl> <dbl> <dbl> <dbl> <dbl> <dbl> <dbl>
##  1 2 Pac          87    82    72    77    87    94    99    NA    NA    NA    NA
##  2 2Ge+her        91    87    92    NA    NA    NA    NA    NA    NA    NA    NA
##  3 3 Doors Do…    81    70    68    67    66    57    54    53    51    51    51
##  4 3 Doors Do…    76    76    72    69    67    65    55    59    62    61    61
##  5 504 Boyz       57    34    25    17    17    31    36    49    53    57    64
##  6 98^0           51    39    34    26    26    19     2     2     3     6     7
##  7 A*Teens        97    97    96    95   100    NA    NA    NA    NA    NA    NA
##  8 Aaliyah        84    62    51    41    38    35    35    38    38    36    37
##  9 Aaliyah        59    53    38    28    21    18    16    14    12    10     9
## 10 Adams, Yol…    76    76    74    69    68    67    61    58    57    59    66
## # … with 307 more rows, and 65 more variables: wk12 <dbl>, wk13 <dbl>,
## #   wk14 <dbl>, wk15 <dbl>, wk16 <dbl>, wk17 <dbl>, wk18 <dbl>, wk19 <dbl>,
## #   wk20 <dbl>, wk21 <dbl>, wk22 <dbl>, wk23 <dbl>, wk24 <dbl>, wk25 <dbl>,
## #   wk26 <dbl>, wk27 <dbl>, wk28 <dbl>, wk29 <dbl>, wk30 <dbl>, wk31 <dbl>,
## #   wk32 <dbl>, wk33 <dbl>, wk34 <dbl>, wk35 <dbl>, wk36 <dbl>, wk37 <dbl>,
## #   wk38 <dbl>, wk39 <dbl>, wk40 <dbl>, wk41 <dbl>, wk42 <dbl>, wk43 <dbl>,
## #   wk44 <dbl>, wk45 <dbl>, wk46 <dbl>, wk47 <dbl>, wk48 <dbl>, wk49 <dbl>, …
…
“Wide-format” data is one in which each row is a subject/entity that
is measured repeatedly, and each measurement appears on different
columns. The billboard data is a prime example of
wide-format data because it lists the rankings of a song for each week
in separate columns.

Let’s now convert this into a long-format, in which we have a column
for “week” and then the rank of that song for that week in a column
called “rank”:

billboard %>% pivot_longer(cols=starts_with("wk"), names_to="week", values_to="rank")

## # A tibble: 24,092 × 5
##    artist track                   date.entered week   rank
##    <chr>  <chr>                   <date>       <chr> <dbl>
##  1 2 Pac  Baby Don't Cry (Keep... 2000-02-26   wk1      87
##  2 2 Pac  Baby Don't Cry (Keep... 2000-02-26   wk2      82
##  3 2 Pac  Baby Don't Cry (Keep... 2000-02-26   wk3      72
##  4 2 Pac  Baby Don't Cry (Keep... 2000-02-26   wk4      77
##  5 2 Pac  Baby Don't Cry (Keep... 2000-02-26   wk5      87
##  6 2 Pac  Baby Don't Cry (Keep... 2000-02-26   wk6      94
##  7 2 Pac  Baby Don't Cry (Keep... 2000-02-26   wk7      99
##  8 2 Pac  Baby Don't Cry (Keep... 2000-02-26   wk8      NA
##  9 2 Pac  Baby Don't Cry (Keep... 2000-02-26   wk9      NA
## 10 2 Pac  Baby Don't Cry (Keep... 2000-02-26   wk10     NA
## # … with 24,082 more rows
…
3.5. Converting long-format data to wide-format data with
pivot_wider()

Let’s save the long-format version of the billboard data:

bb_long=billboard %>% pivot_longer(cols=starts_with("wk"), names_to="week", values_to="rank")

We can then revert back to the wide-format version this way:

bb_long %>% pivot_wider(names_from = "week", values_from = "rank")

## # A tibble: 317 × 79
##    artist track date.ent…¹   wk1   wk2   wk3   wk4   wk5   wk6   wk7   wk8   wk9
##    <chr>  <chr> <date>     <dbl> <dbl> <dbl> <dbl> <dbl> <dbl> <dbl> <dbl> <dbl>
##  1 2 Pac  Baby… 2000-02-26    87    82    72    77    87    94    99    NA    NA
##  2 2Ge+h… The … 2000-09-02    91    87    92    NA    NA    NA    NA    NA    NA
##  3 3 Doo… Kryp… 2000-04-08    81    70    68    67    66    57    54    53    51
##  4 3 Doo… Loser 2000-10-21    76    76    72    69    67    65    55    59    62
##  5 504 B… Wobb… 2000-04-15    57    34    25    17    17    31    36    49    53
##  6 98^0   Give… 2000-08-19    51    39    34    26    26    19     2     2     3
##  7 A*Tee… Danc… 2000-07-08    97    97    96    95   100    NA    NA    NA    NA
##  8 Aaliy… I Do… 2000-01-29    84    62    51    41    38    35    35    38    38
##  9 Aaliy… Try … 2000-03-18    59    53    38    28    21    18    16    14    12
## 10 Adams… Open… 2000-08-26    76    76    74    69    68    67    61    58    57
## # … with 307 more rows, 67 more variables: wk10 <dbl>, wk11 <dbl>, wk12 <dbl>,
## #   wk13 <dbl>, wk14 <dbl>, wk15 <dbl>, wk16 <dbl>, wk17 <dbl>, wk18 <dbl>,
## #   wk19 <dbl>, wk20 <dbl>, wk21 <dbl>, wk22 <dbl>, wk23 <dbl>, wk24 <dbl>,
## #   wk25 <dbl>, wk26 <dbl>, wk27 <dbl>, wk28 <dbl>, wk29 <dbl>, wk30 <dbl>,
## #   wk31 <dbl>, wk32 <dbl>, wk33 <dbl>, wk34 <dbl>, wk35 <dbl>, wk36 <dbl>,
## #   wk37 <dbl>, wk38 <dbl>, wk39 <dbl>, wk40 <dbl>, wk41 <dbl>, wk42 <dbl>,
## #   wk43 <dbl>, wk44 <dbl>, wk45 <dbl>, wk46 <dbl>, wk47 <dbl>, wk48 <dbl>, …
…
dplyr makes the craft of summarizing data much easier… if
you get comfortable with the grammar. Here, I will show you how to use
group_by() and summarise() functions to get
summary data by artist, like their best ranking and how many weeks they
spent on the Top 100 chart.

Let’s go back to the code that created the long-format version of the
billboard data, but let’s drop the rows that contain NAs using
drop_na()

billboard %>% 
  pivot_longer(cols=starts_with("wk"), names_to="week", values_to="rank") %>%
  drop_na() 

## # A tibble: 5,307 × 5
##    artist  track                   date.entered week   rank
##    <chr>   <chr>                   <date>       <chr> <dbl>
##  1 2 Pac   Baby Don't Cry (Keep... 2000-02-26   wk1      87
##  2 2 Pac   Baby Don't Cry (Keep... 2000-02-26   wk2      82
##  3 2 Pac   Baby Don't Cry (Keep... 2000-02-26   wk3      72
##  4 2 Pac   Baby Don't Cry (Keep... 2000-02-26   wk4      77
##  5 2 Pac   Baby Don't Cry (Keep... 2000-02-26   wk5      87
##  6 2 Pac   Baby Don't Cry (Keep... 2000-02-26   wk6      94
##  7 2 Pac   Baby Don't Cry (Keep... 2000-02-26   wk7      99
##  8 2Ge+her The Hardest Part Of ... 2000-09-02   wk1      91
##  9 2Ge+her The Hardest Part Of ... 2000-09-02   wk2      87
## 10 2Ge+her The Hardest Part Of ... 2000-09-02   wk3      92
## # … with 5,297 more rows

Now, we can calculate the “best rank” of each artist by grouping the
data by “artist”, and finding the minimum ranking that the artist
had:

billboard %>% 
  pivot_longer(cols=starts_with("wk"), names_to="week", values_to="rank") %>%
  drop_na() %>%
  group_by(artist) %>%
  summarise(artist.best=min(rank, na.rm=T))

## # A tibble: 228 × 2
##    artist              artist.best
##    <chr>                     <dbl>
##  1 2 Pac                        72
##  2 2Ge+her                      87
##  3 3 Doors Down                  3
##  4 504 Boyz                     17
##  5 98^0                          2
##  6 A*Teens                      95
##  7 Aaliyah                       1
##  8 Adams, Yolanda               57
##  9 Adkins, Trace                65
## 10 Aguilera, Christina           1
## # … with 218 more rows

Let’s try another one: we can calculate the number of weeks that an
artist spent on Top 100 by simply counting the number of rows that the
artist shows up in (after having dropped all of the rows containing NAs,
that should be what is left).

billboard %>% 
  pivot_longer(cols=starts_with("wk"), names_to="week", values_to="rank") %>%
  drop_na() %>%
  group_by(artist) %>%
  summarise(artist.weeks=n())

## # A tibble: 228 × 2
##    artist              artist.weeks
##    <chr>                      <int>
##  1 2 Pac                          7
##  2 2Ge+her                        3
##  3 3 Doors Down                  73
##  4 504 Boyz                      18
##  5 98^0                          20
##  6 A*Teens                        5
##  7 Aaliyah                       52
##  8 Adams, Yolanda                20
##  9 Adkins, Trace                 11
## 10 Aguilera, Christina           67
## # … with 218 more rows

We can also do both summary functions in one go. Let’s do that and
save the table as artist_dat:

artist_dat=billboard %>% 
  pivot_longer(cols=starts_with("wk"), names_to="week", values_to="rank") %>%
  drop_na() %>%
  group_by(artist) %>%
  summarise(artist.weeks=n(), artist.best=min(rank))

artist_dat

## # A tibble: 228 × 3
##    artist              artist.weeks artist.best
##    <chr>                      <int>       <dbl>
##  1 2 Pac                          7          72
##  2 2Ge+her                        3          87
##  3 3 Doors Down                  73           3
##  4 504 Boyz                      18          17
##  5 98^0                          20           2
##  6 A*Teens                        5          95
##  7 Aaliyah                       52           1
##  8 Adams, Yolanda                20          57
##  9 Adkins, Trace                 11          65
## 10 Aguilera, Christina           67           1
## # … with 218 more rows

3.7. Add new variables using mutate()

You can make new variables (columns). You’ll often do this if want to
calculate some new variable based on existing variables.

artist_dat %>%
  mutate(top5= artist.best <=5) %>% #TRUE if artist's song was ever in Top 5
  mutate(weeks.prop = artist.weeks/max(artist.weeks)) #weeks on list as proportion of maximum value

## # A tibble: 228 × 5
##    artist              artist.weeks artist.best top5  weeks.prop
##    <chr>                      <int>       <dbl> <lgl>      <dbl>
##  1 2 Pac                          7          72 FALSE     0.0673
##  2 2Ge+her                        3          87 FALSE     0.0288
##  3 3 Doors Down                  73           3 TRUE      0.702 
##  4 504 Boyz                      18          17 FALSE     0.173 
##  5 98^0                          20           2 TRUE      0.192 
##  6 A*Teens                        5          95 FALSE     0.0481
##  7 Aaliyah                       52           1 TRUE      0.5   
##  8 Adams, Yolanda                20          57 FALSE     0.192 
##  9 Adkins, Trace                 11          65 FALSE     0.106 
## 10 Aguilera, Christina           67           1 TRUE      0.644 
## # … with 218 more rows
…
`full_join(x, y): match up the values in designated columns of x
and y, and keep all rows in x and y, even if they don’t match. NAs
whenever value in one table doesn’t have a match in the other.

Let’s demonstrate this by comparing the billboard data
with the artist_dat table that we created above. The
billboard data has more rows than artist_dat
because some artists show up in multiple rows (if they have multiple
songs in the charts). We will remove the columns with “wk” so we can see
the results more easily.

left_join(billboard, artist_dat) %>%
  select(-starts_with("wk"), -date.entered)

## # A tibble: 317 × 4
##    artist         track                   artist.weeks artist.best
##    <chr>          <chr>                          <int>       <dbl>
##  1 2 Pac          Baby Don't Cry (Keep...            7          72
##  2 2Ge+her        The Hardest Part Of ...            3          87
##  3 3 Doors Down   Kryptonite                        73           3
##  4 3 Doors Down   Loser                             73           3
##  5 504 Boyz       Wobble Wobble                     18          17
##  6 98^0           Give Me Just One Nig...           20           2
##  7 A*Teens        Dancing Queen                      5          95
##  8 Aaliyah        I Don't Wanna                     52           1
##  9 Aaliyah        Try Again                         52           1
## 10 Adams, Yolanda Open My Heart                     20          57
## # … with 307 more rows
…
