Module 7: Data Wrangling with dplyr
…
##   nest  mean.col
## 1 5001 0.6916427
## 2 5002 0.6908938
## 3 5003 0.6886885
## 4 5004 0.6974353
## 5 5005 0.7064812
## 6 5007 0.6844351

#dplyr way, option 1
x=filter(dat.a, is.parasite==FALSE)
y=group_by(x, nest)
z=summarise(y, mean(chin_chroma))
z

## # A tibble: 305 x 2
##     nest `mean(chin_chroma)`
##    <int>               <dbl>
##  1  5001               0.692
##  2  5002               0.691
##  3  5003               0.689
##  4  5004               0.697
##  5  5005               0.706
##  6  5007               0.684
##  7  5008               0.717
##  8  5009               0.697
##  9  5010               0.723
## 10  5011               0.722
## # … with 295 more rows

#dplyr way, with piping
dat %>% filter(is.parasite==FALSE) %>% group_by(nest) %>% summarise(mean.col=mean(chin_chroma))

## # A tibble: 305 x 2
##     nest mean.col
##    <int>    <dbl>
##  1  5001    0.692
##  2  5002    0.691
##  3  5003    0.689
##  4  5004    0.697
##  5  5005    0.706
##  6  5007    0.684
##  7  5008    0.717
##  8  5009    0.697
##  9  5010    0.723
## 10  5011    0.722
## # … with 295 more rows
…
