Randomizations: Sampling from sets and probability distributions
…
2.2.2. Get annual averages

Now, I will use group_by() and summarise()
to create an annual avearage dataset.

co2.annual=co2.dat %>% group_by(year) %>% summarise(year.mean=mean(value))
co2.annual

## # A tibble: 39 × 2
##     year year.mean
##    <int>     <dbl>
##  1  1959      316.
##  2  1960      317.
##  3  1961      317.
##  4  1962      318.
##  5  1963      319.
##  6  1964      319.
##  7  1965      320.
##  8  1966      321.
##  9  1967      322.
## 10  1968      323.
## # ℹ 29 more rows
…
