Worked Example: Data Wrangling practice with coot chick color data
…
Here is the link to the data .zip
file. Download this file and extract the contents. There should be
three .csv files. Save these files in the “data” subfolder within the
project folder you are working in.

First, load the packages you need

library(tidyverse)

Then import this data to R:

eggs=read.csv("data/coot_example/EggMaster.csv")
tibble(eggs)

## # A tibble: 4,623 × 6
##    Nest  Egg.Number Egg.ID  Chick.ID Egg.Volume True.Lay.Seq
##    <chr> <chr>      <chr>   <chr>         <dbl>        <dbl>
##  1 5001  1          5001-1  5001-1         30.9          1.5
##  2 5001  2          5001-2  5001-2         34.5          1.5
##  3 5001  3          5001-3  5001-3         35.0          3  
##  4 5001  4          5001-4  5001-4         32.2          4  
##  5 5001  5          5001-5  5001-5         34.4          5  
##  6 5001  6          5001-6  5001-6         33.6          6  
##  7 5001  7          5001-7  5001-7         32.8          7  
##  8 5001  8          5001-8  5001-8         32.4          8  
##  9 5001  9          5001-9  5001-9         32.2          9  
## 10 5001  10         5001-10 5001-10        31.2         10  
## # ℹ 4,613 more rows

chicks=read.csv("data/coot_example/ChickMaster.csv")
tibble(chicks)

## # A tibble: 2,465 × 10
##    new.id Egg.ID Brood Brood.Treatment Clutch Release.Date Release.Order Wetland
##    <chr>  <chr>  <int> <chr>           <chr>  <chr>                <int> <chr>  
##  1 5001-1 1       5001 Control         5001   5/31/09                  1 Jaimes…
##  2 5001-3 3       5001 Control         5001   5/31/09                  1 Jaimes…
##  3 5001-2 2       5001 Control         5001   6/1/09                   2 Jaimes…
##  4 5001-4 4       5001 Control         5001   6/1/09                   2 Jaimes…
##  5 5001-5 5       5001 Control         5001   6/1/09                   2 Jaimes…
##  6 5001-6 6       5001 Control         5001   6/1/09                   2 Jaimes…
##  7 5001-7 7       5001 Control         5001   6/1/09                   2 Jaimes…
##  8 5001-8 8       5001 Control         5001   6/2/09                   3 Jaimes…
##  9 5001-9 9       5001 Control         5001   6/3/09                   4 Jaimes…
## 10 5001-… 10      5001 Control         5001   6/4/09                   5 Jaimes…
## # ℹ 2,455 more rows
## # ℹ 2 more variables: Year <int>, is.parasite <lgl>

color.dat=read.csv("data/coot_example/chickcolor_extracted.csv")
tibble(color.dat)

## # A tibble: 1,459 × 16
##    new.id  beak_brightness beak_chroma beak_hue chin_brightness chin_chroma
##    <chr>             <dbl>       <dbl>    <dbl>           <dbl>       <dbl>
##  1 5001-1           10115.       0.853     582.          12648.       0.666
##  2 5001-10          10978.       0.795     594.           9211.       0.700
##  3 5001-11          10969.       0.861     589.          11616.       0.743
##  4 5001-12           9498.       0.750     593.          10057.       0.693
##  5 5001-2            9923.       0.804     594.           7949.       0.605
##  6 5001-3           14946.       0.764     579.           8907.       0.678
##  7 5001-4           11380.       0.813     587.           9092.       0.642
##  8 5001-5           14091.       0.778     591.          10383.       0.721
##  9 5001-6           11434.       0.760     588.           6023.       0.719
## 10 5001-7            9370.       0.867     586.          14346.       0.737
## # ℹ 1,449 more rows
## # ℹ 10 more variables: chin_hue <dbl>, papillae_brightness <dbl>,
## #   papillae_chroma <dbl>, papillae_hue <dbl>, pate_brightness <dbl>,
## #   pate_chroma <dbl>, pate_hue <dbl>, shield_brightness <dbl>,
## #   shield_chroma <dbl>, shield_hue <dbl>
…
