Mini-Module: Making Maps
…
Here is what that data looks like

tibble(ne_tig)

## # A tibble: 93 × 13
##    STATEFP COUNTYFP COUNTYNS GEOIDFQ      GEOID NAME  NAMELSAD STUSPS STATE_NAME
##    <chr>   <chr>    <chr>    <chr>        <chr> <chr> <chr>    <chr>  <chr>     
##  1 31      115      00835879 0500000US31… 31115 Loup  Loup Co… NE     Nebraska  
##  2 31      005      00835825 0500000US31… 31005 Arth… Arthur … NE     Nebraska  
##  3 31      075      00835859 0500000US31… 31075 Grant Grant C… NE     Nebraska  
##  4 31      091      00835867 0500000US31… 31091 Hook… Hooker … NE     Nebraska  
##  5 31      185      00835914 0500000US31… 31185 York  York Co… NE     Nebraska  
##  6 31      093      00835868 0500000US31… 31093 Howa… Howard … NE     Nebraska  
##  7 31      113      00835878 0500000US31… 31113 Logan Logan C… NE     Nebraska  
##  8 31      103      00835873 0500000US31… 31103 Keya… Keya Pa… NE     Nebraska  
##  9 31      077      00835860 0500000US31… 31077 Gree… Greeley… NE     Nebraska  
## 10 31      171      00835907 0500000US31… 31171 Thom… Thomas … NE     Nebraska  
## # ℹ 83 more rows
## # ℹ 4 more variables: LSAD <chr>, ALAND <dbl>, AWATER <dbl>,
## #   geometry <MULTIPOLYGON [°]>
…
Here
is the direct link to the data

“Annual County Resident Population Estimates by Age, Sex, Race, and
Hispanic Origin: April 1, 2020 to July 1, 2024 (CC-EST2024-ALLDATA)”
–> select “Nebraska”

Read the county-level data.

co_data=read.csv("data/co-est2024-alldata.csv")
tibble(co_data)

## # A tibble: 3,195 × 83
##    SUMLEV REGION DIVISION STATE COUNTY STNAME  CTYNAME         ESTIMATESBASE2020
##     <int>  <int>    <int> <int>  <int> <chr>   <chr>                       <int>
##  1     40      3        6     1      0 Alabama Alabama                   5025369
##  2     50      3        6     1      1 Alabama Autauga County              58800
##  3     50      3        6     1      3 Alabama Baldwin County             231767
##  4     50      3        6     1      5 Alabama Barbour County              25226
##  5     50      3        6     1      7 Alabama Bibb County                 22284
##  6     50      3        6     1      9 Alabama Blount County               59130
##  7     50      3        6     1     11 Alabama Bullock County              10355
##  8     50      3        6     1     13 Alabama Butler County               19048
##  9     50      3        6     1     15 Alabama Calhoun County             116437
## 10     50      3        6     1     17 Alabama Chambers County             34692
## # ℹ 3,185 more rows
## # ℹ 75 more variables: POPESTIMATE2020 <int>, POPESTIMATE2021 <int>,
## #   POPESTIMATE2022 <int>, POPESTIMATE2023 <int>, POPESTIMATE2024 <int>,
## #   NPOPCHG2020 <int>, NPOPCHG2021 <int>, NPOPCHG2022 <int>, NPOPCHG2023 <int>,
## #   NPOPCHG2024 <int>, BIRTHS2020 <int>, BIRTHS2021 <int>, BIRTHS2022 <int>,
## #   BIRTHS2023 <int>, BIRTHS2024 <int>, DEATHS2020 <int>, DEATHS2021 <int>,
## #   DEATHS2022 <int>, DEATHS2023 <int>, DEATHS2024 <int>, …

Mapping county data on map of Nebraska

ne_full2024=ne_shp %>% mutate(CountyFIPS=as.numeric(CountyFIPS)) %>% left_join(co_data %>% filter(STNAME=="Nebraska"), by=join_by("CountyFIPS"=="COUNTY"))

tibble(ne_full2024)

## # A tibble: 93 × 90
##    OBJECTID Cnty_Name Cnty_No CountyFIPS GlobalID   Shape_Leng Shape_Area SUMLEV
##       <int> <chr>       <int>      <dbl> <chr>           <dbl>      <dbl>  <int>
##  1        1 Adams           1          1 {16352331…    201309.     2.53e9     50
##  2        2 Antelope        2          3 {FA9D8609…    260687.     4.05e9     50
##  3        3 Arthur          3          5 {FF27D2CA…    232241.     3.33e9     50
##  4        4 Banner          4          7 {85111E3B…    242686.     3.45e9     50
##  5        5 Blaine          5          9 {AA433830…    232721.     3.34e9     50
##  6        6 Boone           6         11 {7525569E…    233170.     3.20e9     50
##  7        7 Box Butte       7         13 {D6108A51…    295708.     5.10e9     50
##  8        8 Boyd            8         15 {133AFDC8…    283608.     2.63e9     50
##  9        9 Brown           9         17 {94BE7DBB…    342015.     5.83e9     50
## 10       10 Buffalo        10         19 {88742488…    270396.     4.40e9     50
## # ℹ 83 more rows
## # ℹ 82 more variables: REGION <int>, DIVISION <int>, STATE <int>, STNAME <chr>,
## #   CTYNAME <chr>, ESTIMATESBASE2020 <int>, POPESTIMATE2020 <int>,
## #   POPESTIMATE2021 <int>, POPESTIMATE2022 <int>, POPESTIMATE2023 <int>,
## #   POPESTIMATE2024 <int>, NPOPCHG2020 <int>, NPOPCHG2021 <int>,
## #   NPOPCHG2022 <int>, NPOPCHG2023 <int>, NPOPCHG2024 <int>, BIRTHS2020 <int>,
## #   BIRTHS2021 <int>, BIRTHS2022 <int>, BIRTHS2023 <int>, BIRTHS2024 <int>, …
…
